%YAML 1.1
%TAG !u! tag:unity3d.com,2011:
--- !u!74 &7400000
AnimationClip:
  m_ObjectHideFlags: 0
  m_PrefabParentObject: {fileID: 0}
  m_PrefabInternal: {fileID: 0}
  m_Name: Archer02_Idle
  serializedVersion: 6
  m_Legacy: 0
  m_Compressed: 0
  m_UseHighQualityCurve: 1
  m_RotationCurves: []
  m_CompressedRotationCurves: []
  m_EulerCurves: []
  m_PositionCurves: []
  m_ScaleCurves: []
  m_FloatCurves: []
  m_PPtrCurves:
  - curve:
    - time: 0
      value: {fileID: 21300000, guid: 538eedb22386b4c13a58445cf8401d39, type: 3}
    - time: 0.1
      value: {fileID: 21300000, guid: a69e82885f80a437880cd7a14df7e328, type: 3}
    - time: 0.2
      value: {fileID: 21300000, guid: 5da08743fbf1e45909afbdc40e00314d, type: 3}
    - time: 0.3
      value: {fileID: 21300000, guid: 9b2136c6269c242d4945514b85d20023, type: 3}
    - time: 0.4
      value: {fileID: 21300000, guid: b5cad2aa800344c76b7ea67bf58c00e5, type: 3}
    - time: 0.5
      value: {fileID: 21300000, guid: 9c385c95b296441a4bdba87c7f302832, type: 3}
    - time: 0.6
      value: {fileID: 21300000, guid: 9d89f0be812fa4cf09d9709d97610fd8, type: 3}
    - time: 0.7
      value: {fileID: 21300000, guid: cf668612d65854b27a427ec8baf911eb, type: 3}
    attribute: m_Sprite
    path: 
    classID: 212
    script: {fileID: 0}
  m_SampleRate: 10
  m_WrapMode: 0
  m_Bounds:
    m_Center: {x: 0, y: 0, z: 0}
    m_Extent: {x: 0, y: 0, z: 0}
  m_ClipBindingConstant:
    genericBindings:
    - serializedVersion: 2
      path: 0
      attribute: 0
      script: {fileID: 0}
      typeID: 212
      customType: 23
      isPPtrCurve: 1
    pptrCurveMapping:
    - {fileID: 21300000, guid: 538eedb22386b4c13a58445cf8401d39, type: 3}
    - {fileID: 21300000, guid: a69e82885f80a437880cd7a14df7e328, type: 3}
    - {fileID: 21300000, guid: 5da08743fbf1e45909afbdc40e00314d, type: 3}
    - {fileID: 21300000, guid: 9b2136c6269c242d4945514b85d20023, type: 3}
    - {fileID: 21300000, guid: b5cad2aa800344c76b7ea67bf58c00e5, type: 3}
    - {fileID: 21300000, guid: 9c385c95b296441a4bdba87c7f302832, type: 3}
    - {fileID: 21300000, guid: 9d89f0be812fa4cf09d9709d97610fd8, type: 3}
    - {fileID: 21300000, guid: cf668612d65854b27a427ec8baf911eb, type: 3}
  m_AnimationClipSettings:
    serializedVersion: 2
    m_AdditiveReferencePoseClip: {fileID: 0}
    m_AdditiveReferencePoseTime: 0
    m_StartTime: 0
    m_StopTime: 0.8
    m_OrientationOffsetY: 0
    m_Level: 0
    m_CycleOffset: 0
    m_HasAdditiveReferencePose: 0
    m_LoopTime: 1
    m_LoopBlend: 0
    m_LoopBlendOrientation: 0
    m_LoopBlendPositionY: 0
    m_LoopBlendPositionXZ: 0
    m_KeepOriginalOrientation: 0
    m_KeepOriginalPositionY: 1
    m_KeepOriginalPositionXZ: 0
    m_HeightFromFeet: 0
    m_Mirror: 0
  m_EditorCurves: []
  m_EulerEditorCurves: []
  m_HasGenericRootTransform: 0
  m_HasMotionFloatCurves: 0
  m_GenerateMotionCurves: 0
  m_Events: []
