%YAML 1.1
%TAG !u! tag:unity3d.com,2011:
--- !u!74 &7400000
AnimationClip:
  m_ObjectHideFlags: 0
  m_PrefabParentObject: {fileID: 0}
  m_PrefabInternal: {fileID: 0}
  m_Name: Bomber_Attack
  serializedVersion: 6
  m_Legacy: 0
  m_Compressed: 0
  m_UseHighQualityCurve: 1
  m_RotationCurves: []
  m_CompressedRotationCurves: []
  m_EulerCurves: []
  m_PositionCurves: []
  m_ScaleCurves: []
  m_FloatCurves: []
  m_PPtrCurves:
  - curve:
    - time: 0
      value: {fileID: 21300000, guid: e2dbd27c9d6964c4fb3b98b90ce90e91, type: 3}
    - time: 0.06666667
      value: {fileID: 21300000, guid: b0cff31b5213d4804b0292bdedec2635, type: 3}
    - time: 0.13333334
      value: {fileID: 21300000, guid: 8ceefc1e443774a52be1e228b6796de5, type: 3}
    - time: 0.2
      value: {fileID: 21300000, guid: dc3128e74b6594e238d47d9dca8c605a, type: 3}
    - time: 0.26666668
      value: {fileID: 21300000, guid: f129a639ea223484787372359cf72c06, type: 3}
    - time: 0.33333334
      value: {fileID: 21300000, guid: a5e48064d554847fd90c0bdcc4383980, type: 3}
    - time: 0.4
      value: {fileID: 21300000, guid: 9240ac4de3cb94e2e9a43fe445b0f322, type: 3}
    - time: 0.46666667
      value: {fileID: 21300000, guid: 15249e318546c4df1acb97a027557489, type: 3}
    - time: 0.53333336
      value: {fileID: 21300000, guid: df59e476e87f4487c82f62ee781a48de, type: 3}
    attribute: m_Sprite
    path: 
    classID: 212
    script: {fileID: 0}
  m_SampleRate: 15
  m_WrapMode: 0
  m_Bounds:
    m_Center: {x: 0, y: 0, z: 0}
    m_Extent: {x: 0, y: 0, z: 0}
  m_ClipBindingConstant:
    genericBindings:
    - serializedVersion: 2
      path: 0
      attribute: 0
      script: {fileID: 0}
      typeID: 212
      customType: 23
      isPPtrCurve: 1
    pptrCurveMapping:
    - {fileID: 21300000, guid: e2dbd27c9d6964c4fb3b98b90ce90e91, type: 3}
    - {fileID: 21300000, guid: b0cff31b5213d4804b0292bdedec2635, type: 3}
    - {fileID: 21300000, guid: 8ceefc1e443774a52be1e228b6796de5, type: 3}
    - {fileID: 21300000, guid: dc3128e74b6594e238d47d9dca8c605a, type: 3}
    - {fileID: 21300000, guid: f129a639ea223484787372359cf72c06, type: 3}
    - {fileID: 21300000, guid: a5e48064d554847fd90c0bdcc4383980, type: 3}
    - {fileID: 21300000, guid: 9240ac4de3cb94e2e9a43fe445b0f322, type: 3}
    - {fileID: 21300000, guid: 15249e318546c4df1acb97a027557489, type: 3}
    - {fileID: 21300000, guid: df59e476e87f4487c82f62ee781a48de, type: 3}
  m_AnimationClipSettings:
    serializedVersion: 2
    m_AdditiveReferencePoseClip: {fileID: 0}
    m_AdditiveReferencePoseTime: 0
    m_StartTime: 0
    m_StopTime: 0.6
    m_OrientationOffsetY: 0
    m_Level: 0
    m_CycleOffset: 0
    m_HasAdditiveReferencePose: 0
    m_LoopTime: 0
    m_LoopBlend: 0
    m_LoopBlendOrientation: 0
    m_LoopBlendPositionY: 0
    m_LoopBlendPositionXZ: 0
    m_KeepOriginalOrientation: 0
    m_KeepOriginalPositionY: 1
    m_KeepOriginalPositionXZ: 0
    m_HeightFromFeet: 0
    m_Mirror: 0
  m_EditorCurves: []
  m_EulerEditorCurves: []
  m_HasGenericRootTransform: 0
  m_HasMotionFloatCurves: 0
  m_GenerateMotionCurves: 0
  m_Events:
  - time: 0.33333334
    functionName: Animator_OnDamageMade
    data: 
    objectReferenceParameter: {fileID: 0}
    floatParameter: 0
    intParameter: 0
    messageOptions: 0
